Journal (reproducible report)
…
1.2 importing data

bikes_tbl <- readxl:: read_excel(path = "bikes.xlsx")

orderlines_tbl <- readxl::read_excel("orderlines.xlsx")

bikeshops_tbl  <- readxl::read_excel("bikeshops.xlsx")

1.3 Examining Data

1.3.1 Orderlines Table(orderlines_tbl):

orderlines_tbl

## # A tibble: 15,644 x 7
##    ...1  order.id order.line order.date          customer.id product.id quantity
##    <chr>    <dbl>      <dbl> <dttm>                    <dbl>      <dbl>    <dbl>
##  1 1            1          1 2015-01-07 00:00:00           2       2681        1
##  2 2            1          2 2015-01-07 00:00:00           2       2411        1
##  3 3            2          1 2015-01-10 00:00:00          10       2629        1
##  4 4            2          2 2015-01-10 00:00:00          10       2137        1
##  5 5            3          1 2015-01-10 00:00:00           6       2367        1
##  6 6            3          2 2015-01-10 00:00:00           6       1973        1
##  7 7            3          3 2015-01-10 00:00:00           6       2422        1
##  8 8            3          4 2015-01-10 00:00:00           6       2655        1
##  9 9            3          5 2015-01-10 00:00:00           6       2247        1
## 10 10           4          1 2015-01-11 00:00:00          22       2408        1
## # ... with 15,634 more rows
…
1.4 Joining Data

1.4.1 Orderlines Table & Bikes Table joined data by the product id & bike id:

left_join(orderlines_tbl, bikes_tbl, by = c("product.id" = "bike.id"))

## # A tibble: 15,644 x 15
##    ...1  order.id order.line order.date          customer.id product.id quantity
##    <chr>    <dbl>      <dbl> <dttm>                    <dbl>      <dbl>    <dbl>
##  1 1            1          1 2015-01-07 00:00:00           2       2681        1
##  2 2            1          2 2015-01-07 00:00:00           2       2411        1
##  3 3            2          1 2015-01-10 00:00:00          10       2629        1
##  4 4            2          2 2015-01-10 00:00:00          10       2137        1
##  5 5            3          1 2015-01-10 00:00:00           6       2367        1
##  6 6            3          2 2015-01-10 00:00:00           6       1973        1
##  7 7            3          3 2015-01-10 00:00:00           6       2422        1
##  8 8            3          4 2015-01-10 00:00:00           6       2655        1
##  9 9            3          5 2015-01-10 00:00:00           6       2247        1
## 10 10           4          1 2015-01-11 00:00:00          22       2408        1
## # ... with 15,634 more rows, and 8 more variables: model <chr>,
## #   model.year <dbl>, frame.material <chr>, weight <dbl>, price <dbl>,
## #   category <chr>, gender <chr>, url <chr>
…
2.2.2.2 The forecast updates API

Alexandria_EG_forecast <- get_forecast("London", units = "metric") %>%
  owmr_as_tibble()

Alexandria_EG_forecast[, 1:10]

## # A tibble: 40 x 10
##    dt_txt   temp pressure humidity temp_min temp_max weather_id weather_main
##    <chr>   <dbl>    <dbl>    <dbl>    <dbl>    <dbl>      <dbl> <chr>       
##  1 2021-~ -0.45      1018       94   -0.45     0.13         803 Clouds      
##  2 2021-~ -0.08      1016       94   -0.08     0.18         803 Clouds      
##  3 2021-~  0.14      1016       96    0.14     0.22         804 Clouds      
##  4 2021-~  0.570     1017       94    0.570    0.580        804 Clouds      
##  5 2021-~  2.28      1018       83    2.28     2.28         804 Clouds      
##  6 2021-~  2.8       1018       78    2.8      2.8          804 Clouds      
##  7 2021-~  1.32      1020       89    1.32     1.32         803 Clouds      
##  8 2021-~  0.72      1022       93    0.72     0.72         802 Clouds      
##  9 2021-~  0.46      1024       96    0.46     0.46         802 Clouds      
## 10 2021-~  0.31      1024       96    0.31     0.31         801 Clouds      
## # ... with 30 more rows, and 2 more variables: weather_description <chr>,
## #   weather_icon <chr>
…
col_types <- list(
  id = col_character(),
  date = col_date("%Y-%m-%d"),
  num_claims = col_double()
)

patent_tbl <- vroom(
  file       = "patent.tsv",
  delim      = "\t",
  col_types  = col_types,
  na         = c("", "NA", "NULL")
)
patent_tbl

## # A tibble: 327,014 x 3
##    id      date       num_claims
##    <chr>   <date>          <dbl>
##  1 8621662 2014-01-07         11
##  2 8621663 2014-01-07          6
##  3 8621664 2014-01-07         10
##  4 8621665 2014-01-07         18
##  5 8621666 2014-01-07          7
##  6 8621667 2014-01-07          9
##  7 8621668 2014-01-07         21
##  8 8621669 2014-01-07         19
##  9 8621670 2014-01-07          8
## 10 8621671 2014-01-07         18
## # ... with 327,004 more rows
…
assignee_tbl <- vroom(
  file       = "assignee.tsv",
  delim      = "\t",
  col_types  = col_types_assignee,
  na         = c("", "NA", "NULL")
)

assignee_tbl

## # A tibble: 47,011 x 3
##    id                       type  organization                         
##    <chr>                    <chr> <chr>                                
##  1 org_004j997jM9yEdS7z4ReD 3     University of Basel                  
##  2 org_005hVGA5JMOZsS0xOhGa 3     Zetkama Spólka Akcyjna               
##  3 org_00HYUv4lD9tgTZJkbeMR 2     Mirabilis Medica Inc.                
##  4 org_00ilo1Mn0uzPaonlA0JC 2     Prior Knowledge, Inc.                
##  5 org_00QVfWrc76g4rvR1M8Lz 3     Nad Life Pty Ltd                     
##  6 org_00SVvXPZicehU8DdgNcI 3     NT Consulting International Pty. Ltd.
##  7 org_00tJBISXNfVbiTSd5DWu 2     AG Geophysical Products, Inc.        
##  8 org_00YUrmTN9azdF9HIUe3e 3     Active Tools International (HK) Ltd. 
##  9 org_013iorc6vnRFtOWBB8cY 2     PruGen IP Holdings, Inc.             
## 10 org_017F5bZ7kTisGPyXMO6E 3     Amico Clinical Solutions Corporation 
## # ... with 47,001 more rows
…
col_types_uspc <- list(
  patent_id = col_character(),
  mainclass_id = col_number(),
  sequence = col_number()
)

uspc_tbl <- vroom(
  file       = "uspc.tsv",
  delim      = "\t",
  col_types  = col_types_uspc,
  na         = c("", "NA", "NULL")
)
uspc_tbl

## # A tibble: 815,743 x 3
##    patent_id mainclass_id sequence
##    <chr>            <dbl>    <dbl>
##  1 8829273            435        7
##  2 8623780            502        2
##  3 8904894            368        0
##  4 8794165            111        1
##  5 8773920            365        0
##  6 8918173            128        4
##  7 8695065            709        2
##  8 8805803            707        1
##  9 8731536            455        2
## 10 8785396            424        2
## # ... with 815,733 more rows
…
covid_data_tbl%>%
  
  mutate(across(countriesAndTerritories, str_replace_all, "_", " ")) %>%
  mutate(countriesAndTerritories = case_when(
    
    countriesAndTerritories == "United Kingdom" ~ "UK",
    countriesAndTerritories == "United States of America" ~ "USA",
    countriesAndTerritories == "Czechia" ~ "Czech Republic",
    TRUE ~ countriesAndTerritories
  ))

## # A tibble: 9,577 x 12
##    dateRep year_week cases deaths_weekly countriesAndTer~ geoId countryterritor~
##    <chr>   <chr>     <dbl>         <dbl> <chr>            <chr> <chr>           
##  1 04/01/~ 2020-53     902            60 Afghanistan      AF    AFG             
##  2 28/12/~ 2020-52    1994            88 Afghanistan      AF    AFG             
##  3 21/12/~ 2020-51     740           111 Afghanistan      AF    AFG             
##  4 14/12/~ 2020-50    1757            71 Afghanistan      AF    AFG             
##  5 07/12/~ 2020-49    1672           137 Afghanistan      AF    AFG             
##  6 30/11/~ 2020-48    1073            68 Afghanistan      AF    AFG             
##  7 23/11/~ 2020-47    1368            69 Afghanistan      AF    AFG             
##  8 16/11/~ 2020-46    1164            61 Afghanistan      AF    AFG             
##  9 09/11/~ 2020-45     606            24 Afghanistan      AF    AFG             
## 10 02/11/~ 2020-44     800            27 Afghanistan      AF    AFG             
## # ... with 9,567 more rows, and 5 more variables: popData2019 <dbl>,
## #   continentExp <chr>,
## #   `notification_rate_per_100000_population_14-days` <dbl>, month <int>,
## #   year <int>
…
